project/pd2/verif/scripts/test2.vcd
$date
	Sun Oct 12 22:42:21 2025
$end
$version
	ModelSim Version 2020.1
$end
$timescale
	1ps
$end

$scope module top $end
$var wire 1 ! clock $end
$var wire 1 " reset $end

$scope module clkg $end
$var reg 1 # clk $end
$var reg 1 $ rst $end
$var integer 32 % counter $end
$upscope $end

$scope module dut $end
$var wire 1 ! clk $end
$var wire 1 " reset $end

$scope module core $end
$var parameter 32 & AWIDTH $end
$var parameter 32 ' DWIDTH $end
$var wire 1 ! clk $end
$var wire 1 " reset $end
$var reg 32 ( f_insn [31:0] $end
$var reg 32 ) f_pc [31:0] $end
$var reg 32 * d_insn [31:0] $end
$var reg 32 + d_pc [31:0] $end
$var reg 7 , d_opcode [6:0] $end
$var reg 5 - d_rd [4:0] $end
$var reg 5 . d_rs1 [4:0] $end
$var reg 5 / d_rs2 [4:0] $end
$var reg 7 0 d_funct7 [6:0] $end
$var reg 3 1 d_funct3 [2:0] $end
$var reg 32 2 d_imm [31:0] $end
$var reg 5 3 d_shamt [4:0] $end
$var reg 32 4 addr_i [31:0] $end
$var reg 32 5 data_i [31:0] $end
$var reg 1 6 write_en $end
$var reg 1 7 read_en $end
$var reg 32 8 imem_insn_f [31:0] $end
$var reg 1 9 pcsel $end
$var reg 1 : immsel $end
$var reg 1 ; regwren $end
$var reg 1 < rs1sel $end
$var reg 1 = rs2sel $end
$var reg 1 > memren $end
$var reg 1 ? memwren $end
$var reg 2 @ wbsel [1:0] $end
$var reg 4 A alusel [3:0] $end

$scope module fetch1 $end
$var parameter 32 B DWIDTH $end
$var parameter 32 C AWIDTH $end
$var parameter 32 D BASEADDR $end
$var wire 1 ! clk $end
$var wire 1 " rst $end
$var reg 32 E pc_o [31:0] $end
$var reg 32 F insn_o [31:0] $end
$var reg 32 G pc [31:0] $end
$upscope $end

$scope module memory1 $end
$var parameter 32 H AWIDTH $end
$var parameter 32 I DWIDTH $end
$var parameter 32 J BASE_ADDR $end
$var parameter 32 K MEM_BYTES $end
$var wire 1 ! clk $end
$var wire 1 " rst $end
$var wire 1 L addr_i [31] $end
$var wire 1 M addr_i [30] $end
$var wire 1 N addr_i [29] $end
$var wire 1 O addr_i [28] $end
$var wire 1 P addr_i [27] $end
$var wire 1 Q addr_i [26] $end
$var wire 1 R addr_i [25] $end
$var wire 1 S addr_i [24] $end
$var wire 1 T addr_i [23] $end
$var wire 1 U addr_i [22] $end
$var wire 1 V addr_i [21] $end
$var wire 1 W addr_i [20] $end
$var wire 1 X addr_i [19] $end
$var wire 1 Y addr_i [18] $end
$var wire 1 Z addr_i [17] $end
$var wire 1 [ addr_i [16] $end
$var wire 1 \ addr_i [15] $end
$var wire 1 ] addr_i [14] $end
$var wire 1 ^ addr_i [13] $end
$var wire 1 _ addr_i [12] $end
$var wire 1 ` addr_i [11] $end
$var wire 1 a addr_i [10] $end
$var wire 1 b addr_i [9] $end
$var wire 1 c addr_i [8] $end
$var wire 1 d addr_i [7] $end
$var wire 1 e addr_i [6] $end
$var wire 1 f addr_i [5] $end
$var wire 1 g addr_i [4] $end
$var wire 1 h addr_i [3] $end
$var wire 1 i addr_i [2] $end
$var wire 1 j addr_i [1] $end
$var wire 1 k addr_i [0] $end
$var wire 1 l data_i [31] $end
$var wire 1 m data_i [30] $end
$var wire 1 n data_i [29] $end
$var wire 1 o data_i [28] $end
$var wire 1 p data_i [27] $end
$var wire 1 q data_i [26] $end
$var wire 1 r data_i [25] $end
$var wire 1 s data_i [24] $end
$var wire 1 t data_i [23] $end
$var wire 1 u data_i [22] $end
$var wire 1 v data_i [21] $end
$var wire 1 w data_i [20] $end
$var wire 1 x data_i [19] $end
$var wire 1 y data_i [18] $end
$var wire 1 z data_i [17] $end
$var wire 1 { data_i [16] $end
$var wire 1 | data_i [15] $end
$var wire 1 } data_i [14] $end
$var wire 1 ~ data_i [13] $end
$var wire 1 !! data_i [12] $end
$var wire 1 "! data_i [11] $end
$var wire 1 #! data_i [10] $end
$var wire 1 $! data_i [9] $end
$var wire 1 %! data_i [8] $end
$var wire 1 &! data_i [7] $end
$var wire 1 '! data_i [6] $end
$var wire 1 (! data_i [5] $end
$var wire 1 )! data_i [4] $end
$var wire 1 *! data_i [3] $end
$var wire 1 +! data_i [2] $end
$var wire 1 ,! data_i [1] $end
$var wire 1 -! data_i [0] $end
$var wire 1 .! read_en_i $end
$var wire 1 /! write_en_i $end
$var reg 32 0! data_o [31:0] $end
$var reg 32 1! address [31:0] $end
$var integer 32 2! i $end
$upscope $end

$scope module decode_stage $end
$var parameter 32 3! DWIDTH $end
$var parameter 32 4! AWIDTH $end
$var wire 1 ! clk $end
$var wire 1 " rst $end
$var wire 1 5! insn_i [31] $end
$var wire 1 6! insn_i [30] $end
$var wire 1 7! insn_i [29] $end
$var wire 1 8! insn_i [28] $end
$var wire 1 9! insn_i [27] $end
$var wire 1 :! insn_i [26] $end
$var wire 1 ;! insn_i [25] $end
$var wire 1 <! insn_i [24] $end
$var wire 1 =! insn_i [23] $end
$var wire 1 >! insn_i [22] $end
$var wire 1 ?! insn_i [21] $end
$var wire 1 @! insn_i [20] $end
$var wire 1 A! insn_i [19] $end
$var wire 1 B! insn_i [18] $end
$var wire 1 C! insn_i [17] $end
$var wire 1 D! insn_i [16] $end
$var wire 1 E! insn_i [15] $end
$var wire 1 F! insn_i [14] $end
$var wire 1 G! insn_i [13] $end
$var wire 1 H! insn_i [12] $end
$var wire 1 I! insn_i [11] $end
$var wire 1 J! insn_i [10] $end
$var wire 1 K! insn_i [9] $end
$var wire 1 L! insn_i [8] $end
$var wire 1 M! insn_i [7] $end
$var wire 1 N! insn_i [6] $end
$var wire 1 O! insn_i [5] $end
$var wire 1 P! insn_i [4] $end
$var wire 1 Q! insn_i [3] $end
$var wire 1 R! insn_i [2] $end
$var wire 1 S! insn_i [1] $end
$var wire 1 T! insn_i [0] $end
$var wire 1 U! pc_i [31] $end
$var wire 1 V! pc_i [30] $end
$var wire 1 W! pc_i [29] $end
$var wire 1 X! pc_i [28] $end
$var wire 1 Y! pc_i [27] $end
$var wire 1 Z! pc_i [26] $end
$var wire 1 [! pc_i [25] $end
$var wire 1 \! pc_i [24] $end
$var wire 1 ]! pc_i [23] $end
$var wire 1 ^! pc_i [22] $end
$var wire 1 _! pc_i [21] $end
$var wire 1 `! pc_i [20] $end
$var wire 1 a! pc_i [19] $end
$var wire 1 b! pc_i [18] $end
$var wire 1 c! pc_i [17] $end
$var wire 1 d! pc_i [16] $end
$var wire 1 e! pc_i [15] $end
$var wire 1 f! pc_i [14] $end
$var wire 1 g! pc_i [13] $end
$var wire 1 h! pc_i [12] $end
$var wire 1 i! pc_i [11] $end
$var wire 1 j! pc_i [10] $end
$var wire 1 k! pc_i [9] $end
$var wire 1 l! pc_i [8] $end
$var wire 1 m! pc_i [7] $end
$var wire 1 n! pc_i [6] $end
$var wire 1 o! pc_i [5] $end
$var wire 1 p! pc_i [4] $end
$var wire 1 q! pc_i [3] $end
$var wire 1 r! pc_i [2] $end
$var wire 1 s! pc_i [1] $end
$var wire 1 t! pc_i [0] $end
$var reg 32 u! pc_o [31:0] $end
$var reg 32 v! insn_o [31:0] $end
$var reg 7 w! opcode_o [6:0] $end
$var reg 5 x! rd_o [4:0] $end
$var reg 5 y! rs1_o [4:0] $end
$var reg 5 z! rs2_o [4:0] $end
$var reg 7 {! funct7_o [6:0] $end
$var reg 3 |! funct3_o [2:0] $end
$var reg 5 }! shamt_o [4:0] $end
$var reg 32 ~! imm_o [31:0] $end
$var reg 32 !" imm_internal [31:0] $end
$var reg 7 "" opcode_internal [6:0] $end

$scope module imm_gen $end
$var parameter 32 #" DWIDTH $end
$var wire 1 N! opcode_i [6] $end
$var wire 1 O! opcode_i [5] $end
$var wire 1 P! opcode_i [4] $end
$var wire 1 Q! opcode_i [3] $end
$var wire 1 R! opcode_i [2] $end
$var wire 1 S! opcode_i [1] $end
$var wire 1 T! opcode_i [0] $end
$var wire 1 5! insn_i [31] $end
$var wire 1 6! insn_i [30] $end
$var wire 1 7! insn_i [29] $end
$var wire 1 8! insn_i [28] $end
$var wire 1 9! insn_i [27] $end
$var wire 1 :! insn_i [26] $end
$var wire 1 ;! insn_i [25] $end
$var wire 1 <! insn_i [24] $end
$var wire 1 =! insn_i [23] $end
$var wire 1 >! insn_i [22] $end
$var wire 1 ?! insn_i [21] $end
$var wire 1 @! insn_i [20] $end
$var wire 1 A! insn_i [19] $end
$var wire 1 B! insn_i [18] $end
$var wire 1 C! insn_i [17] $end
$var wire 1 D! insn_i [16] $end
$var wire 1 E! insn_i [15] $end
$var wire 1 F! insn_i [14] $end
$var wire 1 G! insn_i [13] $end
$var wire 1 H! insn_i [12] $end
$var wire 1 I! insn_i [11] $end
$var wire 1 J! insn_i [10] $end
$var wire 1 K! insn_i [9] $end
$var wire 1 L! insn_i [8] $end
$var wire 1 M! insn_i [7] $end
$var wire 1 N! insn_i [6] $end
$var wire 1 O! insn_i [5] $end
$var wire 1 P! insn_i [4] $end
$var wire 1 Q! insn_i [3] $end
$var wire 1 R! insn_i [2] $end
$var wire 1 S! insn_i [1] $end
$var wire 1 T! insn_i [0] $end
$var reg 32 $" imm_o [31:0] $end
$upscope $end
$upscope $end

$scope module control_unit $end
$var parameter 32 %" DWIDTH $end
$var wire 1 &" insn_i [31] $end
$var wire 1 '" insn_i [30] $end
$var wire 1 (" insn_i [29] $end
$var wire 1 )" insn_i [28] $end
$var wire 1 *" insn_i [27] $end
$var wire 1 +" insn_i [26] $end
$var wire 1 ," insn_i [25] $end
$var wire 1 -" insn_i [24] $end
$var wire 1 ." insn_i [23] $end
$var wire 1 /" insn_i [22] $end
$var wire 1 0" insn_i [21] $end
$var wire 1 1" insn_i [20] $end
$var wire 1 2" insn_i [19] $end
$var wire 1 3" insn_i [18] $end
$var wire 1 4" insn_i [17] $end
$var wire 1 5" insn_i [16] $end
$var wire 1 6" insn_i [15] $end
$var wire 1 7" insn_i [14] $end
$var wire 1 8" insn_i [13] $end
$var wire 1 9" insn_i [12] $end
$var wire 1 :" insn_i [11] $end
$var wire 1 ;" insn_i [10] $end
$var wire 1 <" insn_i [9] $end
$var wire 1 =" insn_i [8] $end
$var wire 1 >" insn_i [7] $end
$var wire 1 ?" insn_i [6] $end
$var wire 1 @" insn_i [5] $end
$var wire 1 A" insn_i [4] $end
$var wire 1 B" insn_i [3] $end
$var wire 1 C" insn_i [2] $end
$var wire 1 D" insn_i [1] $end
$var wire 1 E" insn_i [0] $end
$var wire 1 F" opcode_i [6] $end
$var wire 1 G" opcode_i [5] $end
$var wire 1 H" opcode_i [4] $end
$var wire 1 I" opcode_i [3] $end
$var wire 1 J" opcode_i [2] $end
$var wire 1 K" opcode_i [1] $end
$var wire 1 L" opcode_i [0] $end
$var wire 1 M" funct7_i [6] $end
$var wire 1 N" funct7_i [5] $end
$var wire 1 O" funct7_i [4] $end
$var wire 1 P" funct7_i [3] $end
$var wire 1 Q" funct7_i [2] $end
$var wire 1 R" funct7_i [1] $end
$var wire 1 S" funct7_i [0] $end
$var wire 1 T" funct3_i [2] $end
$var wire 1 U" funct3_i [1] $end
$var wire 1 V" funct3_i [0] $end
$var reg 1 W" pcsel_o $end
$var reg 1 X" immsel_o $end
$var reg 1 Y" regwren_o $end
$var reg 1 Z" rs1sel_o $end
$var reg 1 [" rs2sel_o $end
$var reg 1 \" memren_o $end
$var reg 1 ]" memwren_o $end
$var reg 2 ^" wbsel_o [1:0] $end
$var reg 4 _" alusel_o [3:0] $end
$upscope $end
$upscope $end
$upscope $end

$scope begin genblk3 $end
$var integer 32 `" tick $end

$scope begin pre_check $end
$var integer 32 a" res $end
$upscope $end

$scope begin tick_check $end
$var reg 1 b" res $end
$var reg 1 c" tick_ok $end
$var reg 1 d" correct $end
$var reg 4096 e" msg [4095:0] $end
$upscope $end

$scope task check_F $end
$var integer 32 f" idx $end
$var reg 1 g" res $end
$var reg 4096 h" msg [4095:0] $end

$scope begin check_F_func $end
$var reg 32 i" pc [31:0] $end
$var reg 32 j" insn [31:0] $end
$var reg 128 k" p [127:0] $end
$upscope $end
$upscope $end

$scope task check_D $end
$var integer 32 l" idx $end
$var reg 1 m" res $end
$var reg 4096 n" msg [4095:0] $end

$scope begin check_D_func $end
$var reg 32 o" pc [31:0] $end
$var reg 7 p" opcode [6:0] $end
$var reg 5 q" rd [4:0] $end
$var reg 5 r" rs1 [4:0] $end
$var reg 5 s" rs2 [4:0] $end
$var reg 3 t" funct3 [2:0] $end
$var reg 7 u" funct7 [6:0] $end
$var reg 32 v" imm [31:0] $end
$var reg 5 w" shamt [4:0] $end
$var reg 128 x" p [127:0] $end
$var reg 224 y" t [223:0] $end
$upscope $end
$upscope $end
$upscope $end
$upscope $end
$enddefinitions $end
#0
$dumpvars
0#
x$
b0 (
bx )
b0 *
bx +
b0 ,
b0 -
b0 .
b0 /
b0 0
b0 1
b0 2
b0 3
bx 4
b0 5
06
17
b0 8
bx E
bx F
bx G
b0 0!
bx 1!
bx u!
b0 v!
b0 w!
b0 x!
b0 y!
b0 z!
b0 {!
b0 |!
b0 }!
b0 ~!
b0 !"
b0 ""
b0 $"
09
0:
0;
0<
0=
0>
0?
b0 @
b0 A
0W"
0X"
0Y"
0Z"
0["
0\"
0]"
b0 ^"
b0 _"
1b"
xc"
1d"
bx e"
1g"
bx h"
bx i"
bx j"
bx k"
1m"
bx n"
bx o"
bx p"
bx q"
bx r"
bx s"
bx t"
bx u"
bx v"
bx w"
bx x"
bx y"
b100000 &
b100000 '
b100000 B
b100000 C
b1000000000000000000000000 D
b100000 H
b100000 I
b1000000000000000000000000 J
b10011100 K
b100000 3!
b100000 4!
b100000 #"
b100000 %"
b0 %
b100111 2!
bx a"
bx `"
bx f"
bx l"
0!
x"
xk
xj
xi
xh
xg
xf
xe
xd
xc
xb
xa
x`
x_
x^
x]
x\
x[
xZ
xY
xX
xW
xV
xU
xT
xS
xR
xQ
xP
xO
xN
xM
xL
0-!
0,!
0+!
0*!
0)!
0(!
0'!
0&!
0%!
0$!
0#!
0"!
0!!
0~
0}
0|
0{
0z
0y
0x
0w
0v
0u
0t
0s
0r
0q
0p
0o
0n
0m
0l
1.!
0/!
0T!
0S!
0R!
0Q!
0P!
0O!
0N!
0M!
0L!
0K!
0J!
0I!
0H!
0G!
0F!
0E!
0D!
0C!
0B!
0A!
0@!
0?!
0>!
0=!
0<!
0;!
0:!
09!
08!
07!
06!
05!
xt!
xs!
xr!
xq!
xp!
xo!
xn!
xm!
xl!
xk!
xj!
xi!
xh!
xg!
xf!
xe!
xd!
xc!
xb!
xa!
x`!
x_!
x^!
x]!
x\!
x[!
xZ!
xY!
xX!
xW!
xV!
xU!
0E"
0D"
0C"
0B"
0A"
0@"
0?"
0>"
0="
0<"
0;"
0:"
09"
08"
07"
06"
05"
04"
03"
02"
01"
00"
0/"
0."
0-"
0,"
0+"
0*"
0)"
0("
0'"
0&"
0L"
0K"
0J"
0I"
0H"
0G"
0F"
0S"
0R"
0Q"
0P"
0O"
0N"
0M"
0V"
0U"
0T"
$end
#1
1#
1!
b1 %
1$
1"
#2
0#
0!
b0 `"
#3
1#
1!
b1000000000000000000000000 G
b10 %
b1000000000000000000000000 E
b1000000000000000000000000 )
b1000000000000000000000000 4
0k
0j
0i
0h
0g
0f
0e
0d
0c
0b
0a
0`
0_
0^
0]
0\
0[
0Z
0Y
0X
0W
0V
0U
0T
1S
0R
0Q
0P
0O
0N
0M
0L
0t!
0s!
0r!
0q!
0p!
0o!
0n!
0m!
0l!
0k!
0j!
0i!
0h!
0g!
0f!
0e!
0d!
0c!
0b!
0a!
0`!
0_!
0^!
0]!
1\!
0[!
0Z!
0Y!
0X!
0W!
0V!
0U!
b0 1!
b1000000000000000000000000 u!
b11111110000000010000000100010011 0!
b11111110000000010000000100010011 8
b1000000000000000000000000 +
b11111110000000010000000100010011 (
1T!
1S!
1P!
1L!
1D!
1;!
1:!
19!
18!
17!
16!
15!
b10011 ""
b11111111111111111111111111100000 $"
b11111110000000010000000100010011 v!
b10011 w!
b10 x!
b10 y!
b10 .
b10 -
b10011 ,
b11111110000000010000000100010011 *
b11111111111111111111111111100000 !"
1E"
1D"
1A"
1="
15"
1,"
1+"
1*"
1)"
1("
1'"
1&"
1L"
1K"
1H"
1Y"
1["
1X"
b0 x!
b0 y!
b11111111111111111111111111100000 ~!
b10 x!
b10 y!
b11111111111111111111111111100000 2
1:
1=
1;
#4
0#
0!
#5
1#
1!
b11 %
#6
0#
0!
#7
1#
1!
b100 %
#8
0#
0!
#9
1#
1!
b101 %
#10
0#
0!
#11
1#
1!
b110 %
0$
0"
#12
0#
0!
b0 f"
b1111111000000001000000010001001100000001000000000000000000000000 k"
b1000000000000000000000000 i"
b11111110000000010000000100010011 j"
b0 l"
b111111111111111111111111111000000000000000000000001000010001001100000001000000000000000000000000 x"
b1000000000000000000000000 o"
b10011 p"
b10 q"
b10 r"
b0 s"
b0 t"
b0 u"
b11111111111111111111111111100000 v"
b1 `"
#13
1#
1!
b1000000000000000000000100 G
b111 %
b1000000000000000000000100 E
b1000000000000000000000100 )
b1000000000000000000000100 4
1i
1r!
b100 1!
b1000000000000000000000100 u!
b0 x!
b0 y!
b10 x!
b10 y!
b0 0!
b100010010111000100011 0!
b100010010111000100011 8
b1000000000000000000000100 +
b100010010111000100011 (
0P!
1O!
0L!
1K!
1J!
1I!
1G!
1@!
0;!
0:!
09!
08!
07!
06!
05!
b100011 ""
b11100 $"
b100010010111000100011 v!
b100011 w!
b0 x!
b0 y!
b10 |!
b10 y!
b1 z!
b1 /
b10 1
b0 -
b100011 ,
b100010010111000100011 *
b11100 !"
0A"
1@"
0="
1<"
1;"
1:"
18"
11"
0,"
0+"
0*"
0)"
0("
0'"
0&"
0H"
1G"
1U"
0X"
0Y"
0["
1["
1X"
1]"
b0 y!
b0 z!
b0 |!
b11100 ~!
b10 |!
b10 y!
b1 z!
b11100 2
1?
0;
#14
0#
0!
b1 f"
b10001001011100010001100000001000000000000000000000100 k"
b1000000000000000000000100 i"
b100010010111000100011 j"
b1 l"
b111000000000010000010001000000010001100000001000000000000000000000100 x"
b1000000000000000000000100 o"
b100011 p"
b0 q"
b1 s"
b10 t"
b11100 v"
b10 `"
#15
1#
1!
b1000000000000000000001000 G
b1000 %
b1000000000000000000001000 E
b1000000000000000000001000 )
b1000000000000000000001000 4
0i
1h
0r!
1q!
b1000 1!
b1000000000000000000001000 u!
b0 y!
b0 z!
b0 |!
b10 |!
b10 y!
b1 z!
b0 0!
b1100000000011110010011 0!
b1100000000011110010011 8
b1000000000000000000001000 +
b1100000000011110010011 (
1P!
0O!
1M!
1L!
0I!
0G!
0D!
1?!
b10011 ""
b11 $"
b1100000000011110010011 v!
b10011 w!
b0 y!
b0 z!
b0 |!
b1111 x!
b1111 -
b0 1
b0 /
b0 .
b10011 ,
b1100000000011110010011 *
b11 !"
1A"
0@"
1>"
1="
0:"
08"
05"
10"
1H"
0G"
0U"
0X"
0["
0]"
1Y"
1["
1X"
b0 x!
b11 ~!
b1111 x!
b11 2
1;
0?
#16
0#
0!
b10 f"
b110000000001111001001100000001000000000000000000001000 k"
b1000000000000000000001000 i"
b1100000000011110010011 j"
b10 l"
b110000000000000000000001111001001100000001000000000000000000001000 x"
b1000000000000000000001000 o"
b10011 p"
b1111 q"
b0 r"
b0 s"
b0 t"
b11 v"
b11 `"
#17
1#
1!
b1000000000000000000001100 G
b1001 %
b1000000000000000000001100 E
b1000000000000000000001100 )
b1000000000000000000001100 4
1i
1r!
b1100 1!
b1000000000000000000001100 u!
b0 x!
b1111 x!
b0 0!
b111100010010011000100011 0!
b111100010010011000100011 8
b1000000000000000000001100 +
b111100010010011000100011 (
0P!
1O!
0M!
0L!
1G!
1D!
1>!
1=!
b100011 ""
b1100 $"
b111100010010011000100011 v!
b100011 w!
b0 x!
b10 |!
b10 y!
b1111 z!
b1111 /
b10 .
b10 1
b0 -
b100011 ,
b111100010010011000100011 *
b1100 !"
0A"
1@"
0>"
0="
18"
15"
1/"
1."
0H"
1G"
1U"
0X"
0Y"
0["
1["
1X"
1]"
b0 y!
b0 z!
b0 |!
b1100 ~!
b10 |!
b10 y!
b1111 z!
b1100 2
1?
0;
#18
0#
0!
b11 f"
b11110001001001100010001100000001000000000000000000001100 k"
b1000000000000000000001100 i"
b111100010010011000100011 j"
b11 l"
b11000000000010011110001000000010001100000001000000000000000000001100 x"
b1000000000000000000001100 o"
b100011 p"
b0 q"
b10 r"
b1111 s"
b10 t"
b1100 v"
b100 `"
#19
1#
1!
b1000000000000000000010000 G
b1010 %
b1000000000000000000010000 E
b1000000000000000000010000 )
b1000000000000000000010000 4
0i
0h
1g
0r!
0q!
1p!
b10000 1!
b1000000000000000000010000 u!
b0 y!
b0 z!
b0 |!
b10 |!
b10 y!
b1111 z!
b0 0!
b1000000000011110010011 0!
b1000000000011110010011 8
b1000000000000000000010000 +
b1000000000011110010011 (
1P!
0O!
1M!
1L!
0G!
0D!
0@!
0>!
0=!
b10011 ""
b10 $"
b1000000000011110010011 v!
b10011 w!
b0 y!
b0 z!
b0 |!
b1111 x!
b1111 -
b0 1
b0 /
b0 .
b10011 ,
b1000000000011110010011 *
b10 !"
1A"
0@"
1>"
1="
08"
05"
01"
0/"
0."
1H"
0G"
0U"
0X"
0["
0]"
1Y"
1["
1X"
b0 x!
b10 ~!
b1111 x!
b10 2
1;
0?
#20
0#
0!
b100 f"
b100000000001111001001100000001000000000000000000010000 k"
b1000000000000000000010000 i"
b1000000000011110010011 j"
b100 l"
b100000000000000000000001111001001100000001000000000000000000010000 x"
b1000000000000000000010000 o"
b10011 p"
b1111 q"
b0 r"
b0 s"
b0 t"
b10 v"
b101 `"
#21
1#
1!
b1000000000000000000010100 G
b1011 %
b1000000000000000000010100 E
b1000000000000000000010100 )
b1000000000000000000010100 4
1i
1r!
b10100 1!
b1000000000000000000010100 u!
b0 x!
b1111 x!
b0 0!
b111100010010010000100011 0!
b111100010010010000100011 8
b1000000000000000000010100 +
b111100010010010000100011 (
0P!
1O!
0M!
0L!
0K!
1G!
1D!
1@!
1>!
1=!
b100011 ""
b1000 $"
b111100010010010000100011 v!
b100011 w!
b0 x!
b10 |!
b10 y!
b1111 z!
b1111 /
b10 .
b10 1
b0 -
b100011 ,
b111100010010010000100011 *
b1000 !"
0A"
1@"
0>"
0="
0<"
18"
15"
11"
1/"
1."
0H"
1G"
1U"
0X"
0Y"
0["
1["
1X"
1]"
b0 y!
b0 z!
b0 |!
b1000 ~!
b10 |!
b10 y!
b1111 z!
b1000 2
1?
0;
#22
0#
0!
b101 f"
b11110001001001000010001100000001000000000000000000010100 k"
b1000000000000000000010100 i"
b111100010010010000100011 j"
b101 l"
b10000000000010011110001000000010001100000001000000000000000000010100 x"
b1000000000000000000010100 o"
b100011 p"
b0 q"
b10 r"
b1111 s"
b10 t"
b1000 v"
b110 `"
#23
1#
1!
b1000000000000000000011000 G
b1100 %
b1000000000000000000011000 E
b1000000000000000000011000 )
b1000000000000000000011000 4
0i
1h
0r!
1q!
b11000 1!
b1000000000000000000011000 u!
b0 y!
b0 z!
b0 |!
b10 |!
b10 y!
b1111 z!
b0 0!
b10010001000100011 0!
b10010001000100011 8
b1000000000000000000011000 +
b10010001000100011 (
1K!
0J!
0@!
0?!
0>!
0=!
b100 $"
b10010001000100011 v!
b0 y!
b0 z!
b0 |!
b10 |!
b10 y!
b0 /
b10010001000100011 *
b100 !"
1<"
0;"
01"
00"
0/"
0."
b0 y!
b0 |!
b100 ~!
b10 |!
b10 y!
b100 2
#24
0#
0!
b110 f"
b1001000100010001100000001000000000000000000011000 k"
b1000000000000000000011000 i"
b10010001000100011 j"
b110 l"
b1000000000010000000001000000010001100000001000000000000000000011000 x"
b1000000000000000000011000 o"
b0 s"
b100 v"
b111 `"
#25
1#
1!
b1000000000000000000011100 G
b1101 %
b1000000000000000000011100 E
b1000000000000000000011100 )
b1000000000000000000011100 4
1i
1r!
b11100 1!
b1000000000000000000011100 u!
b0 y!
b0 |!
b10 |!
b10 y!
b0 0!
b110000010010011100000011 0!
b110000010010011100000011 8
b1000000000000000000011100 +
b110000010010011100000011 (
0O!
1L!
1J!
1>!
1=!
b11 ""
b1100 $"
b110000010010011100000011 v!
b11 w!
b0 y!
b0 |!
b1110 x!
b10 |!
b10 y!
b1110 -
b11 ,
b110000010010011100000011 *
b1100 !"
0@"
1="
1;"
1/"
1."
0G"
0X"
0["
0]"
1Y"
1["
1X"
1\"
b1 ^"
b0 x!
b0 y!
b0 |!
b1100 ~!
b1110 x!
b10 |!
b10 y!
b1100 2
b1 @
1>
1;
0?
#26
0#
0!
b111 f"
b11000001001001110000001100000001000000000000000000011100 k"
b1000000000000000000011100 i"
b110000010010011100000011 j"
b111 l"
b11000000000010000000001001110000001100000001000000000000000000011100 x"
b1000000000000000000011100 o"
b11 p"
b1110 q"
b1100 v"
b1000 `"
#27
1#
1!
b1000000000000000000100000 G
b1110 %
b1000000000000000000100000 E
b1000000000000000000100000 )
b1000000000000000000100000 4
0i
0h
0g
1f
0r!
0q!
0p!
1o!
b100000 1!
b1000000000000000000100000 u!
b0 x!
b0 y!
b0 |!
b1110 x!
b10 |!
b10 y!
b0 0!
b100000010010011110000011 0!
b100000010010011110000011 8
b1000000000000000000100000 +
b100000010010011110000011 (
1M!
0>!
b1000 $"
b100000010010011110000011 v!
b0 x!
b0 y!
b0 |!
b1111 x!
b10 |!
b10 y!
b1111 -
b100000010010011110000011 *
b1000 !"
1>"
0/"
b0 x!
b0 y!
b0 |!
b1000 ~!
b1111 x!
b10 |!
b10 y!
b1000 2
#28
0#
0!
b1000 f"
b10000001001001111000001100000001000000000000000000100000 k"
b1000000000000000000100000 i"
b100000010010011110000011 j"
b1000 l"
b10000000000010000000001001111000001100000001000000000000000000100000 x"
b1000000000000000000100000 o"
b1111 q"
b1000 v"
b1001 `"
#29
1#
1!
b1000000000000000000100100 G
b1111 %
b1000000000000000000100100 E
b1000000000000000000100100 )
b1000000000000000000100100 4
1i
1r!
b100100 1!
b1000000000000000000100100 u!
b0 x!
b0 y!
b0 |!
b1111 x!
b10 |!
b10 y!
b0 0!
b111101110000011110110011 0!
b111101110000011110110011 8
b1000000000000000000100100 +
b111101110000011110110011 (
1P!
1O!
0G!
1C!
1B!
1@!
1?!
1>!
b110011 ""
b0 $"
b111101110000011110110011 v!
b110011 w!
b0 x!
b0 y!
b0 |!
b1111 x!
b1110 y!
b1111 z!
b1111 /
b0 1
b1110 .
b110011 ,
b111101110000011110110011 *
b0 !"
1A"
1@"
08"
14"
13"
11"
10"
1/"
1H"
1G"
0U"
0X"
0Y"
0["
0\"
b0 ^"
1Y"
b0 x!
b0 y!
b0 z!
b0 ~!
b1111 x!
b1110 y!
b1111 z!
b0 2
b0 @
0>
0=
0:
#30
0#
0!
b1001 f"
b11110111000001111011001100000001000000000000000000100100 k"
b1000000000000000000100100 i"
b111101110000011110110011 j"
b1001 l"
b11110111001111011001100000001000000000000000000100100 x"
b1000000000000000000100100 o"
b110011 p"
b1110 r"
b1111 s"
b0 t"
b0 v"
b1010 `"
#31
1#
1!
b1000000000000000000101000 G
b10000 %
b1000000000000000000101000 E
b1000000000000000000101000 )
b1000000000000000000101000 4
0i
1h
0r!
1q!
b101000 1!
b1000000000000000000101000 u!
b0 x!
b0 y!
b0 z!
b1111 x!
b1110 y!
b1111 z!
b0 0!
b111100010010001000100011 0!
b111100010010001000100011 8
b1000000000000000000101000 +
b111100010010001000100011 (
0P!
0M!
0L!
0J!
1G!
0C!
0B!
b100011 ""
b100 $"
b111100010010001000100011 v!
b100011 w!
b0 x!
b0 y!
b0 z!
b10 |!
b10 y!
b1111 z!
b10 1
b10 .
b0 -
b100011 ,
b111100010010001000100011 *
b100 !"
0A"
0>"
0="
0;"
18"
04"
03"
0H"
1U"
0Y"
1["
1X"
1]"
b0 y!
b0 z!
b0 |!
b100 ~!
b10 |!
b10 y!
b1111 z!
b100 2
1?
1:
1=
0;
#32
0#
0!
b1010 f"
b11110001001000100010001100000001000000000000000000101000 k"
b1000000000000000000101000 i"
b111100010010001000100011 j"
b1010 l"
b1000000000010011110001000000010001100000001000000000000000000101000 x"
b1000000000000000000101000 o"
b100011 p"
b0 q"
b10 r"
b10 t"
b100 v"
b1011 `"
#33
1#
1!
b1000000000000000000101100 G
b10001 %
b1000000000000000000101100 E
b1000000000000000000101100 )
b1000000000000000000101100 4
1i
1r!
b101100 1!
b1000000000000000000101100 u!
b0 y!
b0 z!
b0 |!
b10 |!
b10 y!
b1111 z!
b0 0!
b10000010010010100000011 0!
b10000010010010100000011 8
b1000000000000000000101100 +
b10000010010010100000011 (
0O!
1L!
0K!
1J!
0@!
0?!
0=!
b11 ""
b10000010010010100000011 v!
b11 w!
b0 y!
b0 z!
b0 |!
b1010 x!
b10 |!
b10 y!
b1010 -
b0 /
b11 ,
b10000010010010100000011 *
0@"
1="
0<"
1;"
01"
00"
0."
0G"
0X"
0["
0]"
1Y"
1["
1X"
1\"
b1 ^"
b1 @
1>
1;
0?
#34
0#
0!
b1011 f"
b1000001001001010000001100000001000000000000000000101100 k"
b1000000000000000000101100 i"
b10000010010010100000011 j"
b1011 l"
b1000000000010000000001001010000001100000001000000000000000000101100 x"
b1000000000000000000101100 o"
b11 p"
b1010 q"
b0 s"
b1100 `"
