project/pd1/verif/scripts/test1.vcd
$date
	Fri Sep 26 17:06:53 2025
$end
$version
	ModelSim Version 2020.1
$end
$timescale
	1ps
$end

$scope module top $end
$var wire 1 ! clock $end
$var wire 1 " reset $end

$scope module clkg $end
$var reg 1 # clk $end
$var reg 1 $ rst $end
$var integer 32 % counter $end
$upscope $end

$scope module dut $end
$var wire 1 ! clk $end
$var wire 1 " reset $end

$scope module core $end
$var parameter 32 & AWIDTH $end
$var parameter 32 ' DWIDTH $end
$var wire 1 ! clk $end
$var wire 1 " reset $end
$var reg 32 ( f_pc [31:0] $end
$var reg 32 ) f_insn [31:0] $end
$var reg 32 * addr [31:0] $end
$var reg 32 + data_in [31:0] $end
$var reg 32 , data_out [31:0] $end
$var reg 1 - read_en $end
$var reg 1 . write_en $end

$scope module f $end
$var parameter 32 / DWIDTH $end
$var parameter 32 0 AWIDTH $end
$var parameter 32 1 BASEADDR $end
$var wire 1 ! clk $end
$var wire 1 " rst $end
$var reg 32 2 pc_o [31:0] $end
$var reg 32 3 insn_o [31:0] $end
$var reg 32 4 pc_reg [31:0] $end
$var reg 1 5 mem_read_en $end
$var reg 1 6 mem_write_en $end
$var reg 32 7 mem_data_in [31:0] $end
$var reg 32 8 mem_data_out [31:0] $end

$scope module instruction_memory $end
$var parameter 32 9 AWIDTH $end
$var parameter 32 : DWIDTH $end
$var parameter 32 ; BASE_ADDR $end
$var wire 1 ! clk $end
$var wire 1 " rst $end
$var wire 1 < addr_i [31] $end
$var wire 1 = addr_i [30] $end
$var wire 1 > addr_i [29] $end
$var wire 1 ? addr_i [28] $end
$var wire 1 @ addr_i [27] $end
$var wire 1 A addr_i [26] $end
$var wire 1 B addr_i [25] $end
$var wire 1 C addr_i [24] $end
$var wire 1 D addr_i [23] $end
$var wire 1 E addr_i [22] $end
$var wire 1 F addr_i [21] $end
$var wire 1 G addr_i [20] $end
$var wire 1 H addr_i [19] $end
$var wire 1 I addr_i [18] $end
$var wire 1 J addr_i [17] $end
$var wire 1 K addr_i [16] $end
$var wire 1 L addr_i [15] $end
$var wire 1 M addr_i [14] $end
$var wire 1 N addr_i [13] $end
$var wire 1 O addr_i [12] $end
$var wire 1 P addr_i [11] $end
$var wire 1 Q addr_i [10] $end
$var wire 1 R addr_i [9] $end
$var wire 1 S addr_i [8] $end
$var wire 1 T addr_i [7] $end
$var wire 1 U addr_i [6] $end
$var wire 1 V addr_i [5] $end
$var wire 1 W addr_i [4] $end
$var wire 1 X addr_i [3] $end
$var wire 1 Y addr_i [2] $end
$var wire 1 Z addr_i [1] $end
$var wire 1 [ addr_i [0] $end
$var wire 1 \ data_i [31] $end
$var wire 1 ] data_i [30] $end
$var wire 1 ^ data_i [29] $end
$var wire 1 _ data_i [28] $end
$var wire 1 ` data_i [27] $end
$var wire 1 a data_i [26] $end
$var wire 1 b data_i [25] $end
$var wire 1 c data_i [24] $end
$var wire 1 d data_i [23] $end
$var wire 1 e data_i [22] $end
$var wire 1 f data_i [21] $end
$var wire 1 g data_i [20] $end
$var wire 1 h data_i [19] $end
$var wire 1 i data_i [18] $end
$var wire 1 j data_i [17] $end
$var wire 1 k data_i [16] $end
$var wire 1 l data_i [15] $end
$var wire 1 m data_i [14] $end
$var wire 1 n data_i [13] $end
$var wire 1 o data_i [12] $end
$var wire 1 p data_i [11] $end
$var wire 1 q data_i [10] $end
$var wire 1 r data_i [9] $end
$var wire 1 s data_i [8] $end
$var wire 1 t data_i [7] $end
$var wire 1 u data_i [6] $end
$var wire 1 v data_i [5] $end
$var wire 1 w data_i [4] $end
$var wire 1 x data_i [3] $end
$var wire 1 y data_i [2] $end
$var wire 1 z data_i [1] $end
$var wire 1 { data_i [0] $end
$var wire 1 | read_en_i $end
$var wire 1 } write_en_i $end
$var reg 32 ~ data_o [31:0] $end
$var reg 32 !! address [31:0] $end
$upscope $end
$upscope $end

$scope module imem $end
$var parameter 32 "! AWIDTH $end
$var parameter 32 #! DWIDTH $end
$var parameter 32 $! BASE_ADDR $end
$var wire 1 ! clk $end
$var wire 1 " rst $end
$var wire 1 %! addr_i [31] $end
$var wire 1 &! addr_i [30] $end
$var wire 1 '! addr_i [29] $end
$var wire 1 (! addr_i [28] $end
$var wire 1 )! addr_i [27] $end
$var wire 1 *! addr_i [26] $end
$var wire 1 +! addr_i [25] $end
$var wire 1 ,! addr_i [24] $end
$var wire 1 -! addr_i [23] $end
$var wire 1 .! addr_i [22] $end
$var wire 1 /! addr_i [21] $end
$var wire 1 0! addr_i [20] $end
$var wire 1 1! addr_i [19] $end
$var wire 1 2! addr_i [18] $end
$var wire 1 3! addr_i [17] $end
$var wire 1 4! addr_i [16] $end
$var wire 1 5! addr_i [15] $end
$var wire 1 6! addr_i [14] $end
$var wire 1 7! addr_i [13] $end
$var wire 1 8! addr_i [12] $end
$var wire 1 9! addr_i [11] $end
$var wire 1 :! addr_i [10] $end
$var wire 1 ;! addr_i [9] $end
$var wire 1 <! addr_i [8] $end
$var wire 1 =! addr_i [7] $end
$var wire 1 >! addr_i [6] $end
$var wire 1 ?! addr_i [5] $end
$var wire 1 @! addr_i [4] $end
$var wire 1 A! addr_i [3] $end
$var wire 1 B! addr_i [2] $end
$var wire 1 C! addr_i [1] $end
$var wire 1 D! addr_i [0] $end
$var wire 1 E! data_i [31] $end
$var wire 1 F! data_i [30] $end
$var wire 1 G! data_i [29] $end
$var wire 1 H! data_i [28] $end
$var wire 1 I! data_i [27] $end
$var wire 1 J! data_i [26] $end
$var wire 1 K! data_i [25] $end
$var wire 1 L! data_i [24] $end
$var wire 1 M! data_i [23] $end
$var wire 1 N! data_i [22] $end
$var wire 1 O! data_i [21] $end
$var wire 1 P! data_i [20] $end
$var wire 1 Q! data_i [19] $end
$var wire 1 R! data_i [18] $end
$var wire 1 S! data_i [17] $end
$var wire 1 T! data_i [16] $end
$var wire 1 U! data_i [15] $end
$var wire 1 V! data_i [14] $end
$var wire 1 W! data_i [13] $end
$var wire 1 X! data_i [12] $end
$var wire 1 Y! data_i [11] $end
$var wire 1 Z! data_i [10] $end
$var wire 1 [! data_i [9] $end
$var wire 1 \! data_i [8] $end
$var wire 1 ]! data_i [7] $end
$var wire 1 ^! data_i [6] $end
$var wire 1 _! data_i [5] $end
$var wire 1 `! data_i [4] $end
$var wire 1 a! data_i [3] $end
$var wire 1 b! data_i [2] $end
$var wire 1 c! data_i [1] $end
$var wire 1 d! data_i [0] $end
$var wire 1 e! read_en_i $end
$var wire 1 f! write_en_i $end
$var reg 32 g! data_o [31:0] $end
$var reg 32 h! address [31:0] $end
$upscope $end
$upscope $end
$upscope $end

$scope begin genblk3 $end
$var integer 32 i! tick $end
$var reg 2 j! state [1:0] $end

$scope begin pre_check $end
$var integer 32 k! res $end
$upscope $end

$scope begin tick_check $end
$var reg 1 l! res $end
$var reg 1 m! tick_ok $end
$var reg 1 n! correct $end
$var reg 4096 o! msg [4095:0] $end
$upscope $end

$scope task check_mem_read1 $end
$var integer 32 p! idx $end
$var reg 1 q! res $end
$var reg 4096 r! msg [4095:0] $end

$scope begin check_mem_read1_func $end
$var reg 32 s! addr [31:0] $end
$var reg 32 t! data [31:0] $end
$var reg 128 u! p [127:0] $end
$upscope $end
$upscope $end

$scope task check_mem_read2 $end
$var integer 32 v! idx $end
$var reg 1 w! res $end
$var reg 4096 x! msg [4095:0] $end

$scope begin check_mem_read2_func $end
$var reg 32 y! addr [31:0] $end
$var reg 32 z! data [31:0] $end
$var reg 128 {! p [127:0] $end
$upscope $end
$upscope $end
$upscope $end
$upscope $end
$enddefinitions $end
#0
$dumpvars
0#
x$
bx (
bx )
bx *
bx +
b0 ,
x-
x.
bx 2
bx 3
bx 4
15
06
b0 7
bx 8
bx ~
bx !!
b0 g!
bx h!
b0 j!
1l!
xm!
1n!
bx o!
1q!
bx r!
bx s!
bx t!
bx u!
xw!
bx x!
bx y!
bx z!
bx {!
b100000 &
b100000 '
b100000 /
b100000 0
b1000000000000000000000000 1
b100000 9
b100000 :
b1000000000000000000000000 ;
b100000 "!
b100000 #!
b1000000000000000000000000 $!
b0 %
bx k!
bx i!
bx p!
bx v!
0!
x"
x[
xZ
xY
xX
xW
xV
xU
xT
xS
xR
xQ
xP
xO
xN
xM
xL
xK
xJ
xI
xH
xG
xF
xE
xD
xC
xB
xA
x@
x?
x>
x=
x<
0{
0z
0y
0x
0w
0v
0u
0t
0s
0r
0q
0p
0o
0n
0m
0l
0k
0j
0i
0h
0g
0f
0e
0d
0c
0b
0a
0`
0_
0^
0]
0\
1|
0}
xD!
xC!
xB!
xA!
x@!
x?!
x>!
x=!
x<!
x;!
x:!
x9!
x8!
x7!
x6!
x5!
x4!
x3!
x2!
x1!
x0!
x/!
x.!
x-!
x,!
x+!
x*!
x)!
x(!
x'!
x&!
x%!
xd!
xc!
xb!
xa!
x`!
x_!
x^!
x]!
x\!
x[!
xZ!
xY!
xX!
xW!
xV!
xU!
xT!
xS!
xR!
xQ!
xP!
xO!
xN!
xM!
xL!
xK!
xJ!
xI!
xH!
xG!
xF!
xE!
xe!
xf!
$end
#1
1#
1!
b1 %
1$
1"
#2
0#
0!
b0 i!
b1000000000000000000000000 *
1-
0.
0D!
0C!
0B!
0A!
0@!
0?!
0>!
0=!
0<!
0;!
0:!
09!
08!
07!
06!
05!
04!
03!
02!
01!
00!
0/!
0.!
0-!
1,!
0+!
0*!
0)!
0(!
0'!
0&!
0%!
0f!
b0 h!
1e!
b11111101000000010000000100010011 g!
b11111101000000010000000100010011 ,
#3
1#
1!
b1000000000000000000000000 4
b10 %
b1000000000000000000000000 2
0[
0Z
0Y
0X
0W
0V
0U
0T
0S
0R
0Q
0P
0O
0N
0M
0L
0K
0J
0I
0H
0G
0F
0E
0D
1C
0B
0A
0@
0?
0>
0=
0<
b0 !!
b1000000000000000000000000 (
b11111101000000010000000100010011 ~
b11111101000000010000000100010011 8
b11111101000000010000000100010011 3
b11111101000000010000000100010011 )
#4
0#
0!
#5
1#
1!
b11 %
#6
0#
0!
#7
1#
1!
b100 %
#8
0#
0!
#9
1#
1!
b101 %
#10
0#
0!
#11
1#
1!
b110 %
0$
0"
#12
0#
0!
b0 p!
b1111110100000001000000010001001100000001000000000000000000000000 u!
b1000000000000000000000000 s!
b11111101000000010000000100010011 t!
b1 i!
b1000000000000000000000100 *
b1000000000000000000000100 +
0d!
0c!
1b!
0a!
0`!
0_!
0^!
0]!
0\!
0[!
0Z!
0Y!
0X!
0W!
0V!
0U!
0T!
0S!
0R!
0Q!
0P!
0O!
0N!
0M!
1L!
0K!
0J!
0I!
0H!
0G!
0F!
0E!
1B!
b100 h!
b10000100010010011000100011 g!
b10000100010010011000100011 ,
#13
1#
1!
b1000000000000000000000100 4
b111 %
b1000000000000000000000100 2
1Y
b100 !!
b1000000000000000000000100 (
b10000100010010011000100011 ~
b10000100010010011000100011 8
b10000100010010011000100011 3
b10000100010010011000100011 )
#14
0#
0!
b1 p!
b1000010001001001100010001100000001000000000000000000000100 u!
b1000000000000000000000100 s!
b10000100010010011000100011 t!
b10 i!
b1000000000000000000001000 *
b1000000000000000000001000 +
0b!
1a!
0B!
1A!
b1000 h!
b10010111000100011 g!
b10010111000100011 ,
#15
1#
1!
b1000000000000000000001000 4
b1000 %
b1000000000000000000001000 2
0Y
1X
b1000 !!
b1000000000000000000001000 (
b10010111000100011 ~
b10010111000100011 8
b10010111000100011 3
b10010111000100011 )
#16
0#
0!
b10 p!
b1001011100010001100000001000000000000000000001000 u!
b1000000000000000000001000 s!
b10010111000100011 t!
b11 i!
b1000000000000000000001100 *
b1000000000000000000001100 +
1b!
1B!
b1100 h!
b10010110000100011 g!
b10010110000100011 ,
#17
1#
1!
b1000000000000000000001100 4
b1001 %
b1000000000000000000001100 2
1Y
b1100 !!
b1000000000000000000001100 (
b10010110000100011 ~
b10010110000100011 8
b10010110000100011 3
b10010110000100011 )
#18
0#
0!
b11 p!
b1001011000010001100000001000000000000000000001100 u!
b1000000000000000000001100 s!
b10010110000100011 t!
b100 i!
b1000000000000000000010000 *
b1000000000000000000010000 +
0b!
0a!
1`!
0B!
0A!
1@!
b10000 h!
b1000000000000011110110111 g!
b1000000000000011110110111 ,
#19
1#
1!
b1000000000000000000010000 4
b1010 %
b1000000000000000000010000 2
0Y
0X
1W
b10000 !!
b1000000000000000000010000 (
b1000000000000011110110111 ~
b1000000000000011110110111 8
b1000000000000011110110111 3
b1000000000000011110110111 )
#20
0#
0!
b100 p!
b100000000000001111011011100000001000000000000000000010000 u!
b1000000000000000000010000 s!
b1000000000000011110110111 t!
b101 i!
b1000000000000000000010100 *
b1000000000000000000010100 +
1b!
1B!
b10100 h!
b11110100001111010011000000011 g!
b11110100001111010011000000011 ,
#21
1#
1!
b1000000000000000000010100 4
b1011 %
b1000000000000000000010100 2
1Y
b10100 !!
b1000000000000000000010100 (
b11110100001111010011000000011 ~
b11110100001111010011000000011 8
b11110100001111010011000000011 3
b11110100001111010011000000011 )
#22
0#
0!
b101 p!
b1111010000111101001100000001100000001000000000000000000010100 u!
b1000000000000000000010100 s!
b11110100001111010011000000011 t!
b110 i!
b1000000000000000000011000 *
b1000000000000000000011000 +
0b!
1a!
0B!
1A!
b11000 h!
b11110100001111000011100010011 g!
b11110100001111000011100010011 ,
#23
1#
1!
b1000000000000000000011000 4
b1100 %
b1000000000000000000011000 2
0Y
1X
b11000 !!
b1000000000000000000011000 (
b11110100001111000011100010011 ~
b11110100001111000011100010011 8
b11110100001111000011100010011 3
b11110100001111000011100010011 )
#24
0#
0!
b110 p!
b1111010000111100001110001001100000001000000000000000000011000 u!
b1000000000000000000011000 s!
b11110100001111000011100010011 t!
b111 i!
b1000000000000000000011100 *
b1000000000000000000011100 +
1b!
1B!
b11100 h!
b10001110010011010000011 g!
b10001110010011010000011 ,
#25
1#
1!
b1000000000000000000011100 4
b1101 %
b1000000000000000000011100 2
1Y
b11100 !!
b1000000000000000000011100 (
b10001110010011010000011 ~
b10001110010011010000011 8
b10001110010011010000011 3
b10001110010011010000011 )
#26
0#
0!
b111 p!
b1000111001001101000001100000001000000000000000000011100 u!
b1000000000000000000011100 s!
b10001110010011010000011 t!
b1000 i!
b1000000000000000000100000 *
b1000000000000000000100000 +
0b!
0a!
0`!
1_!
0B!
0A!
0@!
1?!
b100000 h!
b11110100001111000011100010011 g!
b11110100001111000011100010011 ,
#27
1#
1!
b1000000000000000000100000 4
b1110 %
b1000000000000000000100000 2
0Y
0X
0W
1V
b100000 !!
b1000000000000000000100000 (
b11110100001111000011100010011 ~
b11110100001111000011100010011 8
b11110100001111000011100010011 3
b11110100001111000011100010011 )
#28
0#
0!
b1000 p!
b1111010000111100001110001001100000001000000000000000000100000 u!
b1000000000000000000100000 s!
b11110100001111000011100010011 t!
b1001 i!
b1000000000000000000100100 *
b1000000000000000000100100 +
1b!
1B!
b100100 h!
b100001110010011100000011 g!
b100001110010011100000011 ,
#29
1#
1!
b1000000000000000000100100 4
b1111 %
b1000000000000000000100100 2
1Y
b100100 !!
b1000000000000000000100100 (
b100001110010011100000011 ~
b100001110010011100000011 8
b100001110010011100000011 3
b100001110010011100000011 )
#30
0#
0!
b1001 p!
b10000111001001110000001100000001000000000000000000100100 u!
b1000000000000000000100100 s!
b100001110010011100000011 t!
b1010 i!
b1000000000000000000101000 *
b1000000000000000000101000 +
0b!
1a!
0B!
1A!
b101000 h!
b110000010010001000100011 g!
b110000010010001000100011 ,
#31
1#
1!
b1000000000000000000101000 4
b10000 %
b1000000000000000000101000 2
0Y
1X
b101000 !!
b1000000000000000000101000 (
b110000010010001000100011 ~
b110000010010001000100011 8
b110000010010001000100011 3
b110000010010001000100011 )
#32
0#
0!
b1010 p!
b11000001001000100010001100000001000000000000000000101000 u!
b1000000000000000000101000 s!
b110000010010001000100011 t!
b1011 i!
b1000000000000000000101100 *
b1000000000000000000101100 +
1b!
1B!
b101100 h!
b110100010010010000100011 g!
b110100010010010000100011 ,
#33
1#
1!
b1000000000000000000101100 4
b10001 %
b1000000000000000000101100 2
1Y
b101100 !!
b1000000000000000000101100 (
b110100010010010000100011 ~
b110100010010010000100011 8
b110100010010010000100011 3
b110100010010010000100011 )
#34
0#
0!
b1011 p!
b11010001001001000010001100000001000000000000000000101100 u!
b1000000000000000000101100 s!
b110100010010010000100011 t!
b1100 i!
b1000000000000000000110000 *
b1000000000000000000110000 +
0b!
0a!
1`!
0B!
0A!
1@!
b110000 h!
b111000010010011000100011 g!
b111000010010011000100011 ,
#35
1#
1!
b1000000000000000000110000 4
b10010 %
b1000000000000000000110000 2
0Y
0X
1W
b110000 !!
b1000000000000000000110000 (
b111000010010011000100011 ~
b111000010010011000100011 8
b111000010010011000100011 3
b111000010010011000100011 )
#36
0#
0!
b1100 p!
b11100001001001100010001100000001000000000000000000110000 u!
b1000000000000000000110000 s!
b111000010010011000100011 t!
b1101 i!
b1000000000000000000110100 *
b1000000000000000000110100 +
1b!
1B!
b110100 h!
b11110100001111000011110010011 g!
b11110100001111000011110010011 ,
#37
1#
1!
b1000000000000000000110100 4
b10011 %
b1000000000000000000110100 2
1Y
b110100 !!
b1000000000000000000110100 (
b11110100001111000011110010011 ~
b11110100001111000011110010011 8
b11110100001111000011110010011 3
b11110100001111000011110010011 )
#38
0#
0!
b1101 p!
b1111010000111100001111001001100000001000000000000000000110100 u!
b1000000000000000000110100 s!
b11110100001111000011110010011 t!
b1110 i!
b1000000000000000000111000 *
b1000000000000000000111000 +
0b!
1a!
0B!
1A!
b111000 h!
b110001111100011110000011 g!
b110001111100011110000011 ,
#39
1#
1!
b1000000000000000000111000 4
b10100 %
b1000000000000000000111000 2
0Y
1X
b111000 !!
b1000000000000000000111000 (
b110001111100011110000011 ~
b110001111100011110000011 8
b110001111100011110000011 3
b110001111100011110000011 )
#40
0#
0!
b1110 p!
b11000111110001111000001100000001000000000000000000111000 u!
b1000000000000000000111000 s!
b110001111100011110000011 t!
b1111 i!
b1000000000000000000111100 *
b1000000000000000000111100 +
1b!
1B!
b111100 h!
b111100010000100000100011 g!
b111100010000100000100011 ,
#41
1#
1!
b1000000000000000000111100 4
b10101 %
b1000000000000000000111100 2
1Y
b111100 !!
b1000000000000000000111100 (
b111100010000100000100011 ~
b111100010000100000100011 8
b111100010000100000100011 3
b111100010000100000100011 )
#42
0#
0!
b1111 p!
b11110001000010000010001100000001000000000000000000111100 u!
b1000000000000000000111100 s!
b111100010000100000100011 t!
b10000 i!
b1000000000000000001000000 *
b1000000000000000001000000 +
0b!
0a!
0`!
0_!
1^!
0B!
0A!
0@!
0?!
1>!
b1000000 h!
b10000100010100011 g!
b10000100010100011 ,
#43
1#
1!
b1000000000000000001000000 4
b10110 %
b1000000000000000001000000 2
0Y
0X
0W
0V
1U
b1000000 !!
b1000000000000000001000000 (
b10000100010100011 ~
b10000100010100011 8
b10000100010100011 3
b10000100010100011 )
#44
0#
0!
b10000 p!
b1000010001010001100000001000000000000000001000000 u!
b1000000000000000001000000 s!
b10000100010100011 t!
b10001 i!
b1000000000000000001000100 *
b1000000000000000001000100 +
1b!
1B!
b1000100 h!
b10000100100100011 g!
b10000100100100011 ,
#45
1#
1!
b1000000000000000001000100 4
b10111 %
b1000000000000000001000100 2
1Y
b1000100 !!
b1000000000000000001000100 (
b10000100100100011 ~
b10000100100100011 8
b10000100100100011 3
b10000100100100011 )
#46
0#
0!
b10001 p!
b1000010010010001100000001000000000000000001000100 u!
b1000000000000000001000100 s!
b10000100100100011 t!
b10010 i!
b1000000000000000001001000 *
b1000000000000000001001000 +
0b!
1a!
0B!
1A!
b1001000 h!
b10000100110100011 g!
b10000100110100011 ,
#47
1#
1!
b1000000000000000001001000 4
b11000 %
b1000000000000000001001000 2
0Y
1X
b1001000 !!
b1000000000000000001001000 (
b10000100110100011 ~
b10000100110100011 8
b10000100110100011 3
b10000100110100011 )
#48
0#
0!
b10010 p!
b1000010011010001100000001000000000000000001001000 u!
b1000000000000000001001000 s!
b10000100110100011 t!
b10011 i!
b1000000000000000001001100 *
b1000000000000000001001100 +
1b!
1B!
b1001100 h!
b10000101000100011 g!
b10000101000100011 ,
#49
1#
1!
b1000000000000000001001100 4
b11001 %
b1000000000000000001001100 2
1Y
b1001100 !!
b1000000000000000001001100 (
b10000101000100011 ~
b10000101000100011 8
b10000101000100011 3
b10000101000100011 )
#50
0#
0!
b10011 p!
b1000010100010001100000001000000000000000001001100 u!
b1000000000000000001001100 s!
b10000101000100011 t!
b10100 i!
b1000000000000000001010000 *
b1000000000000000001010000 +
0b!
0a!
1`!
0B!
0A!
1@!
b1010000 h!
b10000101010100011 g!
b10000101010100011 ,
#51
1#
1!
b1000000000000000001010000 4
b11010 %
b1000000000000000001010000 2
0Y
0X
1W
b1010000 !!
b1000000000000000001010000 (
b10000101010100011 ~
b10000101010100011 8
b10000101010100011 3
b10000101010100011 )
#52
0#
0!
b10100 p!
b1000010101010001100000001000000000000000001010000 u!
b1000000000000000001010000 s!
b10000101010100011 t!
b10101 i!
b1000000000000000001010100 *
b1000000000000000001010100 +
1b!
1B!
b1010100 h!
b10000101100100011 g!
b10000101100100011 ,
#53
1#
1!
b1000000000000000001010100 4
b11011 %
b1000000000000000001010100 2
1Y
b1010100 !!
b1000000000000000001010100 (
b10000101100100011 ~
b10000101100100011 8
b10000101100100011 3
b10000101100100011 )
#54
0#
0!
b10101 p!
b1000010110010001100000001000000000000000001010100 u!
b1000000000000000001010100 s!
b10000101100100011 t!
b10110 i!
b1000000000000000001011000 *
b1000000000000000001011000 +
0b!
1a!
0B!
1A!
b1011000 h!
b10000101110100011 g!
b10000101110100011 ,
#55
1#
1!
b1000000000000000001011000 4
b11100 %
b1000000000000000001011000 2
0Y
1X
b1011000 !!
b1000000000000000001011000 (
b10000101110100011 ~
b10000101110100011 8
b10000101110100011 3
b10000101110100011 )
#56
0#
0!
b10110 p!
b1000010111010001100000001000000000000000001011000 u!
b1000000000000000001011000 s!
b10000101110100011 t!
b10111 i!
b1000000000000000001011100 *
b1000000000000000001011100 +
1b!
1B!
b1011100 h!
b10010111000100011 g!
b10010111000100011 ,
#57
1#
1!
b1000000000000000001011100 4
b11101 %
b1000000000000000001011100 2
1Y
b1011100 !!
b1000000000000000001011100 (
b10010111000100011 ~
b10010111000100011 8
b10010111000100011 3
b10010111000100011 )
#58
0#
0!
b10111 p!
b1001011100010001100000001000000000000000001011100 u!
b1000000000000000001011100 s!
b10010111000100011 t!
b11000 i!
b1000000000000000001100000 *
b1000000000000000001100000 +
0b!
0a!
0`!
1_!
0B!
0A!
0@!
1?!
b1100000 h!
b10000110000000000000001101111 g!
b10000110000000000000001101111 ,
#59
1#
1!
b1000000000000000001100000 4
b11110 %
b1000000000000000001100000 2
0Y
0X
0W
1V
b1100000 !!
b1000000000000000001100000 (
b10000110000000000000001101111 ~
b10000110000000000000001101111 8
b10000110000000000000001101111 3
b10000110000000000000001101111 )
#60
0#
0!
b11000 p!
b1000011000000000000000110111100000001000000000000000001100000 u!
b1000000000000000001100000 s!
b10000110000000000000001101111 t!
b11001 i!
b1000000000000000001100100 *
b1000000000000000001100100 +
1b!
1B!
b1100100 h!
b1110000010010011110000011 g!
b1110000010010011110000011 ,
#61
1#
1!
b1000000000000000001100100 4
b11111 %
b1000000000000000001100100 2
1Y
b1100100 !!
b1000000000000000001100100 (
b1110000010010011110000011 ~
b1110000010010011110000011 8
b1110000010010011110000011 3
b1110000010010011110000011 )
#62
0#
0!
b11001 p!
b111000001001001111000001100000001000000000000000001100100 u!
b1000000000000000001100100 s!
b1110000010010011110000011 t!
b11010 i!
b1000000000000000001101000 *
b1000000000000000001101000 +
0b!
1a!
0B!
1A!
b1101000 h!
b10000000010000011100010011 g!
b10000000010000011100010011 ,
#63
1#
1!
b1000000000000000001101000 4
b100000 %
b1000000000000000001101000 2
0Y
1X
b1101000 !!
b1000000000000000001101000 (
b10000000010000011100010011 ~
b10000000010000011100010011 8
b10000000010000011100010011 3
b10000000010000011100010011 )
#64
0#
0!
b11010 p!
b1000000001000001110001001100000001000000000000000001101000 u!
b1000000000000000001101000 s!
b10000000010000011100010011 t!
b11011 i!
b1000000000000000001101100 *
b1000000000000000001101100 +
1b!
1B!
b1101100 h!
b111101110000011110110011 g!
b111101110000011110110011 ,
#65
1#
1!
b1000000000000000001101100 4
b100001 %
b1000000000000000001101100 2
1Y
b1101100 !!
b1000000000000000001101100 (
b111101110000011110110011 ~
b111101110000011110110011 8
b111101110000011110110011 3
b111101110000011110110011 )
#66
0#
0!
b11011 p!
b11110111000001111011001100000001000000000000000001101100 u!
b1000000000000000001101100 s!
b111101110000011110110011 t!
b11100 i!
b1000000000000000001110000 *
b1000000000000000001110000 +
0b!
0a!
1`!
0B!
0A!
1@!
b1110000 h!
b11111110010001111100011100000011 g!
b11111110010001111100011100000011 ,
#67
1#
1!
b1000000000000000001110000 4
b100010 %
b1000000000000000001110000 2
0Y
0X
1W
b1110000 !!
b1000000000000000001110000 (
b11111110010001111100011100000011 ~
b11111110010001111100011100000011 8
b11111110010001111100011100000011 3
b11111110010001111100011100000011 )
#68
0#
0!
b11100 p!
b1111111001000111110001110000001100000001000000000000000001110000 u!
b1000000000000000001110000 s!
b11111110010001111100011100000011 t!
b11101 i!
b1000000000000000001110100 *
b1000000000000000001110100 +
1b!
1B!
b1110100 h!
b110000100000000011110010011 g!
b110000100000000011110010011 ,
#69
1#
1!
b1000000000000000001110100 4
b100011 %
b1000000000000000001110100 2
1Y
b1110100 !!
b1000000000000000001110100 (
b110000100000000011110010011 ~
b110000100000000011110010011 8
b110000100000000011110010011 3
b110000100000000011110010011 )
#70
0#
0!
b11101 p!
b11000010000000001111001001100000001000000000000000001110100 u!
b1000000000000000001110100 s!
b110000100000000011110010011 t!
b11110 i!
b1000000000000000001111000 *
b1000000000000000001111000 +
0b!
1a!
0B!
1A!
b1111000 h!
b1100111101110000111001100011 g!
b1100111101110000111001100011 ,
#71
1#
1!
b1000000000000000001111000 4
b100100 %
b1000000000000000001111000 2
0Y
1X
b1111000 !!
b1000000000000000001111000 (
b1100111101110000111001100011 ~
b1100111101110000111001100011 8
b1100111101110000111001100011 3
b1100111101110000111001100011 )
#72
0#
0!
b11110 p!
b110011110111000011100110001100000001000000000000000001111000 u!
b1000000000000000001111000 s!
b1100111101110000111001100011 t!
b11111 i!
b1000000000000000001111100 *
b1000000000000000001111100 +
1b!
1B!
b1111100 h!
b1110000010010011110000011 g!
b1110000010010011110000011 ,
#73
1#
1!
b1000000000000000001111100 4
b100101 %
b1000000000000000001111100 2
1Y
b1111100 !!
b1000000000000000001111100 (
b1110000010010011110000011 ~
b1110000010010011110000011 8
b1110000010010011110000011 3
b1110000010010011110000011 )
#74
0#
0!
b11111 p!
b111000001001001111000001100000001000000000000000001111100 u!
b1000000000000000001111100 s!
b1110000010010011110000011 t!
b100000 i!
b1000000000000000010000000 *
b1000000000000000010000000 +
0b!
0a!
0`!
0_!
0^!
1]!
0B!
0A!
0@!
0?!
0>!
1=!
b10000000 h!
b10000000010000011100010011 g!
b10000000010000011100010011 ,
#75
1#
1!
b1000000000000000010000000 4
b100110 %
b1000000000000000010000000 2
0Y
0X
0W
0V
0U
1T
b10000000 !!
b1000000000000000010000000 (
b10000000010000011100010011 ~
b10000000010000011100010011 8
b10000000010000011100010011 3
b10000000010000011100010011 )
#76
0#
0!
b100000 p!
b1000000001000001110001001100000001000000000000000010000000 u!
b1000000000000000010000000 s!
b10000000010000011100010011 t!
b100001 i!
b1000000000000000010000100 *
b1000000000000000010000100 +
1b!
1B!
b10000100 h!
b111101110000011110110011 g!
b111101110000011110110011 ,
#77
1#
1!
b1000000000000000010000100 4
b100111 %
b1000000000000000010000100 2
1Y
b10000100 !!
b1000000000000000010000100 (
b111101110000011110110011 ~
b111101110000011110110011 8
b111101110000011110110011 3
b111101110000011110110011 )
#78
0#
0!
b100001 p!
b11110111000001111011001100000001000000000000000010000100 u!
b1000000000000000010000100 s!
b111101110000011110110011 t!
b100010 i!
b1000000000000000010001000 *
b1000000000000000010001000 +
0b!
1a!
0B!
1A!
b10001000 h!
b11111110010001111100011100000011 g!
b11111110010001111100011100000011 ,
#79
1#
1!
b1000000000000000010001000 4
b101000 %
b1000000000000000010001000 2
0Y
1X
b10001000 !!
b1000000000000000010001000 (
b11111110010001111100011100000011 ~
b11111110010001111100011100000011 8
b11111110010001111100011100000011 3
b11111110010001111100011100000011 )
#80
0#
0!
b100010 p!
b1111111001000111110001110000001100000001000000000000000010001000 u!
b1000000000000000010001000 s!
b11111110010001111100011100000011 t!
b100011 i!
b1000000000000000010001100 *
b1000000000000000010001100 +
1b!
1B!
b10001100 h!
b100000100000000011110010011 g!
b100000100000000011110010011 ,
#81
1#
1!
b1000000000000000010001100 4
b101001 %
b1000000000000000010001100 2
1Y
b10001100 !!
b1000000000000000010001100 (
b100000100000000011110010011 ~
b100000100000000011110010011 8
b100000100000000011110010011 3
b100000100000000011110010011 )
#82
0#
0!
b100011 p!
b10000010000000001111001001100000001000000000000000010001100 u!
b1000000000000000010001100 s!
b100000100000000011110010011 t!
b100100 i!
b1000000000000000010010000 *
b1000000000000000010010000 +
0b!
0a!
1`!
0B!
0A!
1@!
b10010000 h!
b1100111101110000001001100011 g!
b1100111101110000001001100011 ,
#83
1#
1!
b1000000000000000010010000 4
b101010 %
b1000000000000000010010000 2
0Y
0X
1W
b10010000 !!
b1000000000000000010010000 (
b1100111101110000001001100011 ~
b1100111101110000001001100011 8
b1100111101110000001001100011 3
b1100111101110000001001100011 )
